<?xml version="1.0" encoding="UTF-8" standalone="no"?>
<!-- Created with Inkscape (http://www.inkscape.org/) -->

<svg
   xmlns:dc="http://purl.org/dc/elements/1.1/"
   xmlns:cc="http://creativecommons.org/ns#"
   xmlns:rdf="http://www.w3.org/1999/02/22-rdf-syntax-ns#"
   xmlns:svg="http://www.w3.org/2000/svg"
   xmlns="http://www.w3.org/2000/svg"
   xmlns:sodipodi="http://sodipodi.sourceforge.net/DTD/sodipodi-0.dtd"
   xmlns:inkscape="http://www.inkscape.org/namespaces/inkscape"
   width="64px"
   height="64px"
   id="svg3819"
   version="1.1"
   inkscape:version="0.48.3.1 r9886"
   sodipodi:docname="Aussichtsturm.emf"
   inkscape:export-filename="C:\WINDOWS\Profiles\U204562\Desktop\Auflageexemplare WEP\Bikestrecke.png"
   inkscape:export-xdpi="198.75508"
   inkscape:export-ydpi="198.75508">
  <title
     id="title3884">Bikestrecke</title>
  <defs
     id="defs3821">
    <clipPath
       clipPathUnits="userSpaceOnUse"
       id="clipPath340">
      <path
         inkscape:connector-curvature="0"
         d="m 1354,2243.73 0,262 28,0 0,-262 -28,0 z"
         id="path342" />
    </clipPath>
  </defs>
  <sodipodi:namedview
     id="base"
     pagecolor="#ffffff"
     bordercolor="#666666"
     borderopacity="1.0"
     inkscape:pageopacity="0.0"
     inkscape:pageshadow="2"
     inkscape:zoom="8.4303216"
     inkscape:cx="26.337254"
     inkscape:cy="36.466967"
     inkscape:current-layer="layer1"
     showgrid="true"
     inkscape:document-units="px"
     inkscape:grid-bbox="true"
     inkscape:window-width="1920"
     inkscape:window-height="1024"
     inkscape:window-x="-4"
     inkscape:window-y="-4"
     inkscape:window-maximized="1" />
  <metadata
     id="metadata3824">
    <rdf:RDF>
      <cc:Work
         rdf:about="">
        <dc:format>image/svg+xml</dc:format>
        <dc:type
           rdf:resource="http://purl.org/dc/dcmitype/StillImage" />
        <dc:title>Bikestrecke</dc:title>
      </cc:Work>
    </rdf:RDF>
  </metadata>
  <g
     id="layer1"
     inkscape:label="Layer 1"
     inkscape:groupmode="layer">
    <path
       inkscape:connector-curvature="0"
       id="path1000"
       style="fill:#009ed1;fill-opacity:1;fill-rule:evenodd;stroke:none"
       d="m 0.89218137,0.76504537 0,62.55203463 62.85951163,0 0,-62.55203463 -62.85951163,0 z" />
    <path
       inkscape:connector-curvature="0"
       id="path1002"
       style="fill:none;stroke:#009ed1;stroke-width:0.7445038;stroke-linecap:round;stroke-linejoin:round;stroke-miterlimit:10;stroke-opacity:1;stroke-dasharray:none"
       d="m 0.89218137,0.76504537 62.51574863,0 0,62.55203463 -62.51574863,0 0,-62.55203463" />
    <path
       inkscape:connector-curvature="0"
       id="path1004"
       style="fill:#ffffff;fill-opacity:1;fill-rule:evenodd;stroke:none"
       d="m 56.322391,51.685387 0,1.471813 -0.735906,0.735907 -0.735906,1.471812 -1.471813,0.735907 -41.946658,0 -1.4718124,-0.735907 -1.4718126,-1.471812 0,-0.735907 -0.7359062,-1.471813 0,-39.003031 -2.9436252,0 0,41.210751 1.4718126,2.207719 1.4718126,2.207718 2.2077188,0.735907 2.9436254,0.735906 39.003033,0 2.207718,-0.735906 2.207719,-0.735907 2.207719,-2.207718 0.735906,-2.207719 0.735907,-2.20772 -3.679532,0" />
    <path
       inkscape:connector-curvature="0"
       id="path1006"
       style="fill:none;stroke:#ffffff;stroke-width:0.73590624;stroke-linecap:round;stroke-linejoin:round;stroke-miterlimit:10;stroke-opacity:1;stroke-dasharray:none"
       d="m 56.322391,51.685387 0,1.471813 -0.735906,0.735907 -0.735906,1.471812 -1.471813,0.735907 -41.946658,0 -1.4718124,-0.735907 -1.4718126,-1.471812 0,-0.735907 -0.7359062,-1.471813 0,-39.003031 -2.9436252,0 0,41.210751 1.4718126,2.207719 1.4718126,2.207718 2.2077188,0.735907 2.9436254,0.735906 39.003033,0 2.207718,-0.735906 2.207719,-0.735907 2.207719,-2.207718 0.735906,-2.207719 0.735907,-2.20772 -3.679532,0" />
    <path
       inkscape:connector-curvature="0"
       id="path1008"
       style="fill:#ffffff;fill-opacity:1;fill-rule:evenodd;stroke:none"
       d="m 8.488483,11.210542 0,-1.4718122 1.4718126,-0.7359063 1.4718124,-0.7359062 1.471813,-0.7359064 39.003033,0 1.471812,0.7359064 1.471813,0.7359062 0.735906,0.7359063 0.735906,1.4718122 0,40.474845 3.679532,0 0,-39.003031 -0.735907,-2.9436262 -0.735906,-1.4718125 -2.207719,-2.207719 -2.207719,-1.4718126 -44.1543764,0 -2.2077188,1.4718126 -1.4718126,2.207719 -1.4718126,1.4718125 0,2.9436262 2.9436252,0 0.7359062,-1.471814" />
    <path
       inkscape:connector-curvature="0"
       id="path1010"
       style="fill:none;stroke:#ffffff;stroke-width:0.73590624;stroke-linecap:round;stroke-linejoin:round;stroke-miterlimit:10;stroke-opacity:1;stroke-dasharray:none"
       d="m 8.488483,11.210542 0,-1.4718122 1.4718126,-0.7359063 1.4718124,-0.7359062 1.471813,-0.7359064 39.003033,0 1.471812,0.7359064 1.471813,0.7359062 0.735906,0.7359063 0.735906,1.4718122 0,40.474845 3.679532,0 0,-39.003031 -0.735907,-2.9436262 -0.735906,-1.4718125 -2.207719,-2.207719 -2.207719,-1.4718126 -44.1543764,0 -2.2077188,1.4718126 -1.4718126,2.207719 -1.4718126,1.4718125 0,2.9436262 2.9436252,0 0.7359062,-1.471814" />
    <path
       inkscape:connector-curvature="0"
       id="path1012"
       style="fill:#ffffff;fill-opacity:1;fill-rule:evenodd;stroke:none"
       d="m 29.093859,11.946449 -3.679531,8.830876 0,6.623156 2.207719,6.623156 3.679532,2.943626 2.207718,3.679531 0.735907,0.735907 1.471812,-1.471813 2.207719,-3.679531 1.471813,-3.679532 -0.735907,-5.151344 -2.207719,-4.415438 -4.415438,-5.151344 -1.471812,-2.943625 -1.471813,-2.943625" />
    <path
       inkscape:connector-curvature="0"
       id="path1014"
       style="fill:none;stroke:#ffffff;stroke-width:0.73590624;stroke-linecap:round;stroke-linejoin:round;stroke-miterlimit:10;stroke-opacity:1;stroke-dasharray:none"
       d="m 29.093859,11.946449 -3.679531,8.830876 0,6.623156 2.207719,6.623156 3.679532,2.943626 2.207718,3.679531 0.735907,0.735907 1.471812,-1.471813 2.207719,-3.679531 1.471813,-3.679532 -0.735907,-5.151344 -2.207719,-4.415438 -4.415438,-5.151344 -1.471812,-2.943625 -1.471813,-2.943625" />
    <path
       inkscape:connector-curvature="0"
       id="path1016"
       style="fill:#ffffff;fill-opacity:1;fill-rule:evenodd;stroke:none"
       d="m 22.470703,22.985043 -1.471813,3.679532 -0.735907,5.88725 1.471814,5.151344 2.207718,2.207719 2.943625,0.735906 2.207719,0.735907 1.471813,0 0.735907,-0.735907 -1.471813,-2.943625 -2.207719,-2.207719 -2.207719,-2.943625 -2.207719,-4.415438 -0.735906,-5.151344" />
    <path
       inkscape:connector-curvature="0"
       id="path1018"
       style="fill:none;stroke:#ffffff;stroke-width:0.73590624;stroke-linecap:round;stroke-linejoin:round;stroke-miterlimit:10;stroke-opacity:1;stroke-dasharray:none"
       d="m 22.470703,22.985043 -1.471813,3.679532 -0.735907,5.88725 1.471814,5.151344 2.207718,2.207719 2.943625,0.735906 2.207719,0.735907 1.471813,0 0.735907,-0.735907 -1.471813,-2.943625 -2.207719,-2.207719 -2.207719,-2.943625 -2.207719,-4.415438 -0.735906,-5.151344" />
    <path
       inkscape:connector-curvature="0"
       id="path1020"
       style="fill:#ffffff;fill-opacity:1;fill-rule:evenodd;stroke:none"
       d="m 37.924735,40.646794 2.943625,-1.471812 2.207719,-2.943625 1.471812,-3.679532 -0.735906,-2.207718 -2.943625,-3.679532 0,2.943625 0.735906,2.943625 -1.471812,4.415438 -2.207719,3.679531" />
    <path
       inkscape:connector-curvature="0"
       id="path1022"
       style="fill:none;stroke:#ffffff;stroke-width:0.73590624;stroke-linecap:round;stroke-linejoin:round;stroke-miterlimit:10;stroke-opacity:1;stroke-dasharray:none"
       d="m 37.924735,40.646794 2.943625,-1.471812 2.207719,-2.943625 1.471812,-3.679532 -0.735906,-2.207718 -2.943625,-3.679532 0,2.943625 0.735906,2.943625 -1.471812,4.415438 -2.207719,3.679531" />
    <path
       inkscape:connector-curvature="0"
       id="path1024"
       style="fill:#ffffff;fill-opacity:1;fill-rule:evenodd;stroke:none"
       d="m 20.99889,43.590419 0,1.471814 0.735907,0.735905 2.943625,0.735907 0.735906,0 5.151344,-2.207719 -5.88725,-0.735907 -2.943625,-0.735906 0,0.735906 -0.735907,0" />
    <path
       inkscape:connector-curvature="0"
       id="path1026"
       style="fill:none;stroke:#ffffff;stroke-width:0.73590624;stroke-linecap:round;stroke-linejoin:round;stroke-miterlimit:10;stroke-opacity:1;stroke-dasharray:none"
       d="m 20.99889,43.590419 0,1.471814 0.735907,0.735905 2.943625,0.735907 0.735906,0 5.151344,-2.207719 -5.88725,-0.735907 -2.943625,-0.735906 0,0.735906 -0.735907,0" />
    <path
       inkscape:connector-curvature="0"
       id="path1028"
       style="fill:#ffffff;fill-opacity:1;fill-rule:evenodd;stroke:none"
       d="m 20.99889,48.741762 0,0.735907 0.735907,2.207718 1.471812,0 0,-2.207718 -2.207719,-0.735907" />
    <path
       inkscape:connector-curvature="0"
       id="path1030"
       style="fill:none;stroke:#ffffff;stroke-width:0.73590624;stroke-linecap:round;stroke-linejoin:round;stroke-miterlimit:10;stroke-opacity:1;stroke-dasharray:none"
       d="m 20.99889,48.741762 0,0.735907 0.735907,2.207718 1.471812,0 0,-2.207718 -2.207719,-0.735907" />
    <path
       inkscape:connector-curvature="0"
       id="path1032"
       style="fill:#ffffff;fill-opacity:1;fill-rule:evenodd;stroke:none"
       d="m 24.678422,48.005857 0.735906,1.471812 0,1.471813 9.566781,-2.943625 6.623157,-2.207719 2.207719,0 0.735906,-0.735905 0,-2.943626 -1.471812,0 -5.88725,1.471812 -2.943625,1.471814 -9.566782,2.943624" />
    <path
       inkscape:connector-curvature="0"
       id="path1034"
       style="fill:none;stroke:#ffffff;stroke-width:0.73590624;stroke-linecap:round;stroke-linejoin:round;stroke-miterlimit:10;stroke-opacity:1;stroke-dasharray:none"
       d="m 24.678422,48.005857 0.735906,1.471812 0,1.471813 9.566781,-2.943625 6.623157,-2.207719 2.207719,0 0.735906,-0.735905 0,-2.943626 -1.471812,0 -5.88725,1.471812 -2.943625,1.471814 -9.566782,2.943624" />
    <path
       inkscape:connector-curvature="0"
       id="path1036"
       style="fill:#ffffff;fill-opacity:1;fill-rule:evenodd;stroke:none"
       d="m 37.188829,49.477669 3.679531,1.471813 0.735906,-0.735907 0,-0.735906 0.735907,-1.471812 -0.735907,-0.735907 -0.735906,0.735907 -3.679531,1.471812" />
    <path
       inkscape:connector-curvature="0"
       id="path1038"
       style="fill:none;stroke:#ffffff;stroke-width:0.73590624;stroke-linecap:round;stroke-linejoin:round;stroke-miterlimit:10;stroke-opacity:1;stroke-dasharray:none"
       d="m 37.188829,49.477669 3.679531,1.471813 0.735906,-0.735907 0,-0.735906 0.735907,-1.471812 -0.735907,-0.735907 -0.735906,0.735907 -3.679531,1.471812" />
    <path
       inkscape:connector-curvature="0"
       id="path1040"
       style="fill:#ffffff;fill-opacity:1;fill-rule:evenodd;stroke:none"
       d="m 43.811985,48.741762 -1.471812,0.735907 0,0.735906 0.735906,1.471812 1.471812,0 0.735907,-1.471812 -0.735907,-0.735906 -0.735906,-0.735907" />
    <path
       inkscape:connector-curvature="0"
       id="path1042"
       style="fill:none;stroke:#ffffff;stroke-width:0.73590624;stroke-linecap:round;stroke-linejoin:round;stroke-miterlimit:10;stroke-opacity:1;stroke-dasharray:none"
       d="m 43.811985,48.741762 -1.471812,0.735907 0,0.735906 0.735906,1.471812 1.471812,0 0.735907,-1.471812 -0.735907,-0.735906 -0.735906,-0.735907" />
  </g>
</svg>
