<?xml version="1.0" encoding="UTF-8" standalone="no"?>
<!-- Created with Inkscape (http://www.inkscape.org/) -->

<svg
   xmlns:dc="http://purl.org/dc/elements/1.1/"
   xmlns:cc="http://creativecommons.org/ns#"
   xmlns:rdf="http://www.w3.org/1999/02/22-rdf-syntax-ns#"
   xmlns:svg="http://www.w3.org/2000/svg"
   xmlns="http://www.w3.org/2000/svg"
   xmlns:sodipodi="http://sodipodi.sourceforge.net/DTD/sodipodi-0.dtd"
   xmlns:inkscape="http://www.inkscape.org/namespaces/inkscape"
   width="16"
   height="16"
   id="svg5125"
   version="1.1"
   inkscape:version="0.48.5 r10040"
   sodipodi:docname="Nouveau document 4">
  <defs
     id="defs5127" />
  <sodipodi:namedview
     id="base"
     pagecolor="#ffffff"
     bordercolor="#666666"
     borderopacity="1.0"
     inkscape:pageopacity="0.0"
     inkscape:pageshadow="2"
     inkscape:zoom="21.313503"
     inkscape:cx="11.569525"
     inkscape:cy="10.502258"
     inkscape:document-units="px"
     inkscape:current-layer="g4076-4"
     showgrid="false"
     fit-margin-top="0"
     fit-margin-left="0"
     fit-margin-right="0"
     fit-margin-bottom="0"
     inkscape:window-width="767"
     inkscape:window-height="476"
     inkscape:window-x="30"
     inkscape:window-y="641"
     inkscape:window-maximized="0" />
  <metadata
     id="metadata5130">
    <rdf:RDF>
      <cc:Work
         rdf:about="">
        <dc:format>image/svg+xml</dc:format>
        <dc:type
           rdf:resource="http://purl.org/dc/dcmitype/StillImage" />
        <dc:title></dc:title>
      </cc:Work>
    </rdf:RDF>
  </metadata>
  <g
     inkscape:label="Calque 1"
     inkscape:groupmode="layer"
     id="layer1"
     transform="translate(-686.28571,-684.36218)">
    <g
       transform="translate(485.28571,175.36218)"
       inkscape:label="changes-allow"
       id="g4076-4"
       style="display:inline">
      <g
         id="g4053-3"
         inkscape:label="lock"
         transform="translate(181,233)"
         style="fill:#bebebe;fill-opacity:1">
        <rect
           inkscape:label="a"
           y="276"
           x="20"
           height="16"
           width="16"
           id="rect4055-9"
           style="color:#bebebe;fill:none;stroke:none;stroke-width:1;marker:none;visibility:visible;display:inline;overflow:visible" />
      </g>
      <path
         sodipodi:nodetypes="csccccscc"
         inkscape:connector-curvature="0"
         id="rect4063-6"
         d="m 203.9998,518 c -0.554,0 -1,0.446 -1,1 l 0,0.53125 0,5.46875 12,0 0,-5.46875 0,-0.53125 c 0,-0.554 -0.446,-1 -1,-1 l -10,0 z"
         style="color:#bebebe;fill:#4d4d4d;fill-opacity:1;fill-rule:nonzero;stroke:none;stroke-width:2;marker:none;visibility:visible;display:inline;overflow:visible" />
      <path
         style="font-size:medium;font-style:normal;font-variant:normal;font-weight:normal;font-stretch:normal;text-indent:0;text-align:start;text-decoration:none;line-height:normal;letter-spacing:normal;word-spacing:normal;text-transform:none;direction:ltr;block-progression:tb;writing-mode:lr-tb;text-anchor:start;baseline-shift:baseline;color:#bebebe;fill:#4d4d4d;fill-opacity:1;stroke:none;stroke-width:2;marker:none;visibility:visible;display:inline;overflow:visible;enable-background:accumulate;font-family:Sans;-inkscape-font-specification:Sans"
         d="m 208,509 c -1.64469,0 -3,1.35529 -3,3 l 0,3 2,0 0,-3 c 0,-0.57129 0.42873,-1 1,-1 l 2,0 c 0.57127,0 1,0.42871 1,1 l 0,7 2,0 0,-7 c 0,-1.64471 -1.35531,-3 -3,-3 l -2,0 z"
         id="rect4291-4"
         inkscape:connector-curvature="0" />
    </g>
  </g>
</svg>
